{
  "nodes": [
    {
      "id": "I_kwDOAMKUeM5DD6r1",
      "title": "test6",
      "body": "<img src=\"https://user-images.githubusercontent.com/1435457/149456215-2f425f1d-67d6-44aa-a35b-e27b43aa9e8a.png\" alt=\"senbazuru\" width=\"100px\" height=\"100px\"><mark>aoweijowerinvowiejqfewf awefoiewjf</mark>",
      "publishedAt": "2022-02-06T04:16:56Z",
      "number": 8,
      "labels": {
        "nodes": [
          {
            "name": "bug"
          },
          {
            "name": "duplicate"
          },
          {
            "name": "enhancement"
          },
          {
            "name": "invalid"
          },
          {
            "name": "question"
          },
          {
            "name": "wontfix"
          },
          {
            "name": "test"
          }
        ]
      }
    },
    {
      "id": "I_kwDOAMKUeM5ClNka",
      "title": "test5",
      "body": "<img src=\"https://user-images.githubusercontent.com/1435457/158134931-212280b0-9557-4a36-a3d5-58e2e6cbc9ae.jpeg\" width=\"100px\" height=\"100px\"><mark> oaiwejf erougaoiewjf</mark>",
      "publishedAt": "2022-01-28T06:33:28Z",
      "number": 7,
      "labels": {
        "nodes": []
      }
    },
    {
      "id": "I_kwDOAMKUeM5ClNjC",
      "title": "test4",
      "body": "<img src=\"https://user-images.githubusercontent.com/1435457/158135033-b76eb4b1-ee23-4b86-8951-a62f03f2b3f2.jpeg\" width=\"100px\" height=\"100px\"><mark> oaiwejf erougaoiewjf</mark>",
      "publishedAt": "2022-01-28T06:33:18Z",
      "number": 6,
      "labels": {
        "nodes": []
      }
    },
    {
      "id": "I_kwDOAMKUeM5BxDpg",
      "title": "test3",
      "body": "<img src=\"https://user-images.githubusercontent.com/1435457/158135178-d549b2eb-f70d-4f23-8db0-5f5d77d562bf.jpeg\" width=\"100px\" height=\"100px\"><mark> oaiwejf erougaoiewjf</mark>",
      "publishedAt": "2022-01-14T09:55:16Z",
      "number": 5,
      "labels": {
        "nodes": []
      }
    },
    {
      "id": "I_kwDOAMKUeM5Bvonh",
      "title": "test2",
      "body": "<img src=\"https://user-images.githubusercontent.com/1435457/149456404-58353e24-f84a-4dff-9855-91bb76362930.png\" width=\"100px\" height=\"100px\"> <mark>Test the title Test the titleTest the titleTest the titleTest the titleTest the titleTest the titleTest the titleTest the titleTest the titleTest the titleTest the titleTest the titleTest the titleTest the titleTest the titleTest the title</mark>",
      "publishedAt": "2022-01-14T05:25:21Z",
      "number": 3,
      "labels": {
        "nodes": [
          {
            "name": "bug"
          },
          {
            "name": "duplicate"
          },
          {
            "name": "enhancement"
          },
          {
            "name": "invalid"
          },
          {
            "name": "question"
          }
        ]
      }
    }
  ],
  "totalCount": 6,
  "pageInfo": {
    "hasNextPage": true,
    "endCursor": "MDU6SXNzdWU5MTExMzYzMjA=",
    "nextPage": 1
  }
}
