{
  "nodes": [
    {
      "id": "I_kwDOAMKUeM5BxDpg",
      "title": "test3",
      "body": "<img src=\"https://user-images.githubusercontent.com/1435457/149496057-e31ec183-64d5-408d-99ab-5617feefdf11.jpeg\" width=\"100px\" height=\"100px\"><mark> oaiwejf erougaoiewjf</mark>",
      "publishedAt": "2022-01-14T09:55:16Z",
      "number": 5,
      "labels": {
        "nodes": []
      }
    },
    {
      "id": "I_kwDOAMKUeM5Bvonh",
      "title": "test2",
      "body": "<img src=\"https://user-images.githubusercontent.com/1435457/149456404-58353e24-f84a-4dff-9855-91bb76362930.png\" width=\"100px\" height=\"100px\"> <mark>Test the title Test the titleTest the titleTest the titleTest the titleTest the titleTest the titleTest the titleTest the titleTest the titleTest the titleTest the titleTest the titleTest the titleTest the titleTest the titleTest the title</mark>",
      "publishedAt": "2022-01-14T05:25:21Z",
      "number": 3,
      "labels": {
        "nodes": [
          {
            "name": "bug"
          },
          {
            "name": "duplicate"
          },
          {
            "name": "enhancement"
          },
          {
            "name": "invalid"
          },
          {
            "name": "question"
          }
        ]
      }
    }
  ],
  "totalCount": 5,
  "pageInfo": {
    "hasNextPage": true,
    "endCursor": "MDU6SXNzdWU5MTExMzYzMjA=",
    "nextPage": 2
  }
}
