{
  "nodes": [
    {
      "id": "I_kwDOAMKUeM5ClNjC",
      "title": "test4",
      "body": "<img src=\"https://user-images.githubusercontent.com/1435457/158135033-b76eb4b1-ee23-4b86-8951-a62f03f2b3f2.jpeg\" width=\"100px\" height=\"100px\"><mark> oaiwejf erougaoiewjf</mark>",
      "publishedAt": "2022-01-28T06:33:18Z",
      "number": 6,
      "labels": {
        "nodes": []
      }
    }
  ],
  "totalCount": 6,
  "pageInfo": {
    "hasNextPage": true,
    "endCursor": "I_kwDOAMKUeM5BxDpg",
    "nextPage": 3
  }
}
