{
  "nodes": [
    {
      "id": "I_kwDOAMKUeM5BxDpg",
      "title": "test3",
      "body": "<img src=\"https://user-images.githubusercontent.com/1435457/158135178-d549b2eb-f70d-4f23-8db0-5f5d77d562bf.jpeg\" width=\"100px\" height=\"100px\"><mark> oaiwejf erougaoiewjf</mark>",
      "publishedAt": "2022-01-14T09:55:16Z",
      "number": 5,
      "labels": {
        "nodes": []
      }
    }
  ],
  "totalCount": 6,
  "pageInfo": {
    "hasNextPage": true,
    "endCursor": "I_kwDOAMKUeM5Bvonh",
    "nextPage": 4
  }
}
