{
  "nodes": [
    {
      "id": "I_kwDOAMKUeM5ClNka",
      "title": "test5",
      "body": "![test](https://user-images.githubusercontent.com/1435457/149496057-e31ec183-64d5-408d-99ab-5617feefdf11.jpeg)
",
      "publishedAt": "2022-01-28T06:33:28Z",
      "number": 7,
      "labels": {
        "nodes": []
      }
    },
    {
      "id": "I_kwDOAMKUeM5ClNjC",
      "title": "test4",
      "body": "![test](https://user-images.githubusercontent.com/1435457/149496057-e31ec183-64d5-408d-99ab-5617feefdf11.jpeg)
",
      "publishedAt": "2022-01-28T06:33:18Z",
      "number": 6,
      "labels": {
        "nodes": []
      }
    },
    {
      "id": "I_kwDOAMKUeM5BxDpg",
      "title": "test3",
      "body": "![test](https://user-images.githubusercontent.com/1435457/149496057-e31ec183-64d5-408d-99ab-5617feefdf11.jpeg)
",
      "publishedAt": "2022-01-14T09:55:16Z",
      "number": 5,
      "labels": {
        "nodes": []
      }
    }
  ],
  "totalCount": 5,
  "pageInfo": {
    "hasNextPage": true,
    "endCursor": "I_kwDOAMKUeM5Bvonh",
    "nextPage": 1
  }
}
